{
    "$schema": "https://themost-framework.github.io/themost/models/2018/2/schema.json",
    "@id": "https://universis.io/schemas/InstantMessageReaction",
    "name": "InstantMessageReaction",
    "title": "Connection reactions with instant message",
    "sealed": false,
    "abstract": false,
    "implements": "Thing",
    "version": "1.1",
    "fields": [
        {
          "name": "user",
          "title": "The user that reacted to message",
          "expandable": true,
          "description": "A person who reacted to the message in the channel ",
          "type": "InstantMessageAccount",
          "nullable": false,
          "editable": false,
          "calculation": "javascript:return this.context.model('User').where('name').equal(this.context.user.name).select('imAccount/id').value();"
        },
        {
          "@id": "https://themost.io/schemas/Channel",
          "name": "instantMessage",
          "title": "Instant Message",
          "description": "The instant message of the reaction",
          "type": "InstantMessage",
          "nullable": false,
          "editable": false
        },
        {
          "name": "reaction",
          "title": "Type of the reaction",
          "description": "Type of the reaction",
          "type": "InstantMessageReactionType",
          "nullable": false
        }
    ],
    "constraints": [
      {
        "type": "unique",
        "fields": [
          "user", "instantMessage", "reaction"
        ]
      }
    ],
    "eventListeners": [
      {
          "type": "@themost/data/previous-state-listener"
      }
    ],
    "privileges": [
        {
          "mask": 15,
          "type": "global",
          "account": "Administrators"
        },
        {
          "mask": 1,
          "type": "self",
          "filter": "instantMessage/recipient/members/account eq me()"
        },
        {
          "mask": 2,
          "type": "self",
          "filter": "instantMessage/recipient/members/account eq me()"
        },
        {
          "mask": 8,
          "type": "self",
          "filter": "user/account eq me()"
        }
      ]
  }
  