{
    "$schema": "https://themost-framework.github.io/themost/models/2018/2/schema.json",
    "@id": "https://universis.io/schemas/InstantMessageAccount",
    "name": "InstantMessageAccount",
    "title": "InstantMessageAccounts",
    "hidden": true,
    "sealed": false,
    "abstract": false,
    "implements": "Thing",
    "version": "1.2",
    "fields": [
        {
            "@id": "http://schema.org/name",
            "name": "name",
            "title": "name",
            "description": "A string which represents the name of this instant messaging account. This name will be visible in messages, reactions etc.",
            "type": "Text",
            "nullable": false
        },
        {
            "@id": "http://schema.org/name",
            "name": "account",
            "title": "account",
            "description": "The associated account",
            "type": "Account",
            "nullable": false
        },
        {
            "@id": "http://schema.org/serviceProvider",
            "name": "serviceProvider",
            "type": "Text",
            "size": 36,
            "nullable": false,
            "editable": false,
            "readonly": true,
            "calculation": "javascript:return '@universis/im';"
        }
    ],
    "constraints": [
        {
            "type": "unique",
            "fields": [
                "name"
            ]
        },
        {
            "type": "unique",
            "fields": [
                "account"
            ]
        }
    ],
    "privileges": [
        {
            "mask": 1,
            "type": "global",
            "account": "*"
        },
        {
            "mask": 15,
            "type": "global"
        },
        {
            "mask": 15,
            "type": "global",
            "account": "Administrators"
        }
    ]
}