{
    "$schema": "https://themost-framework.github.io/themost/models/2018/2/schema.json",
    "@id": "https://universis.io/schemas/MessagingChannelType",
    "name": "MessagingChannelType",
    "title": "Type of messaging channel",
    "hidden": false,
    "sealed": false,
    "abstract": false,
    "caching": "always",
    "implements": "Enumeration",
    "version": "0.1",
    "fields": [
      {
        "name": "id",
        "title": "Id",
        "type": "Counter",
        "nullable": false,
        "primary": true
      }
    ],
    "privileges": [
      {
        "mask": 1,
        "type": "global",
        "account": "*"
      },
      {
        "mask": 15,
        "type": "global"
      },
      {
        "mask": 15,
        "type": "global",
        "account": "Administrators"
      }
    ],
    "constraints": [
      {
        "type": "unique",
        "description": "Alternate name must be unique across different records",
        "fields": [
          "alternateName"
        ]
      }
    ],
    "seed": [
      {
        "alternateName": "global",
        "name": "Global"
      },
      {
        "alternateName": "educational",
        "name": "Educational"
      }
    ],
    "eventListeners": [
        {
            "type": "@themost/data/previous-state-listener"
        }
    ]
  }
  